1_male.wav,"Hey, you're ahead of the guy you should be following."
2.wav,"You're ahead of the car you should be following."
3.wav,"Hey, you're ahead of the car you should be following."
4.wav,"Okay, you're ahead of the car you should be following."