1.wav,"Hold your line."
2.wav,"Hold your line."
3.wav,"Hold! Hold! Hold!"
4.wav,"Hold your line."
5.wav,"Hold your line."
6.wav,"Hold your line!"
7.wav,"Hold it!"
8.wav,"Hold!"
9.wav,"Hold your line!"
10.wav,"Hold your line!"