1.wav,"Alright, catch up"
2.wav,"Okay, you gotta catch up here."
3_male.wav,"You gotta catch to the guy ahead."
4.wav,"You gotta catch up to the car ahead."
5.wav,"Okay, you gotta catch up to the car ahead."
6.wav,"Okay, you need to catch up to the car ahead here."