3.wav,"Alright, one more pace lap."
5.wav,"Alright, man, the lights are out."
6.wav,"One more to go."
9.wav,"Alright, the lights are out!"
10.wav,"Alright, lights are out."
11.wav,"Okay, the lights are out!"