3.wav,"Two-to-go this time."
4.wav,"We got two more 'til green."
5.wav,"Okay, we're gonna go green at the end of the next lap."
6.wav,"We're goin' green at the end of the next lap."
7.wav,"We got two more pace laps."