1.wav,"Pits are closed!"
2.wav,"Alright, the pits are closed!"
3.wav,"Okay, pit's still closed."
4.wav,"Pits are still closed!"
5.wav,"Pits are closed."
6.wav,"Alright, pits are closed, pits are closed... We're finishing our ice cream."

